Demonstration of tidyext • tidyext!
…
sum_NaN(c(1, NaN, 2))
[1] 1

When dealing with a data frame of mixed types we can use the describe_* functions.

describe_all(df1)
$`Numeric Variables`
  Variable  N Mean   SD  Min    Q1 Median    Q3   Max Missing
1       g2 50 2.54 1.13  1.0  2.00   3.00  3.75  4.00       0
2        a 50 0.00 1.00 -2.6 -0.84   0.11  0.69  2.02       0
3        b 50 9.98 3.07  4.0  7.25  10.00 12.00 17.00       0

$`Categorical Variables`
# A tibble: 29 x 4
   Variable Group Frequency   `%`
   <chr>    <chr>     <int> <dbl>
 1 g1       a            25    50
 2 g1       b            25    50
 3 c        n             5    10
 4 c        v             4     8
 5 c        e             3     6
 6 c        i             3     6
 7 c        j             3     6
 8 c        m             3     6
 9 c        r             3     6
10 c        c             2     4
# … with 19 more rows

describe_all_cat(df1)
# A tibble: 29 x 4
   Variable Group Frequency   `%`
   <chr>    <chr>     <int> <dbl>
 1 g1       a            25    50
 2 g1       b            25    50
 3 c        n             5    10
 4 c        v             4     8
 5 c        e             3     6
 6 c        i             3     6
 7 c        j             3     6
 8 c        m             3     6
 9 c        r             3     6
10 c        c             2     4
# … with 19 more rows
…
create_prediction_data(iris, num = function(x) quantile(x, p=.25))
  Sepal.Length Sepal.Width Petal.Length Petal.Width Species
1          5.1         2.8          1.6         0.3  setosa

We can also supply specific values.

cd = data.frame(cyl=4, hp=100)
create_prediction_data(mtcars, conditional_data = cd)
  cyl  hp      mpg     disp     drat      wt     qsec     vs      am   gear   carb
1   4 100 20.09062 230.7219 3.596563 3.21725 17.84875 0.4375 0.40625 3.6875 2.8125

For modeling purposes, we often want to center or scale the data, take logs etc. The pre_process function will standardize numeric data by default.

pre_process(df1)
# A tibble: 50 x 6
   g1        g2      a        b c     d    
   <fct>  <dbl>  <dbl>    <dbl> <chr> <lgl>
 1 b     -0.478  0.133  0.659   o     FALSE
 2 a      0.408  0.116 -1.62    r     TRUE 
 3 b     -0.478 -0.828  1.31    p     FALSE
 4 a     -0.478 -2.14  -0.972   l     FALSE
 5 b     -0.478  0.212  0.00652 n     TRUE 
 6 a      0.408 -0.949  0.333   s     FALSE
 7 a      0.408 -0.654 -0.972   i     FALSE
 8 a     -0.478  0.727 -0.972   n     FALSE
 9 b     -1.36   1.05  -1.95    s     TRUE 
10 a      0.408  0.100 -1.95    j     TRUE 
# … with 40 more rows
…
